INDEX VERSION 1.130+C:\FSD56\fresh-mart\SpringBoot\.metadata\.plugins\org.eclipse.jdt.core
168136240.index
2148413099.index
2486128087.index
2673926663.index
1555717357.index
2361894842.index
63578073.index
4155411862.index
2814522370.index
826654685.index
1849547392.index
1124295326.index
3559423655.index
3667001733.index
2671613223.index
1703370312.index
430360380.index
306585978.index
1215013024.index
1829789417.index
1458550595.index
2484448987.index
389203762.index
103791464.index
1244301318.index
3715058443.index
2472098981.index
1286680483.index
1227361749.index
1097744298.index
2449079219.index
3715671218.index
2553466065.index
2039827869.index
258147665.index
1494898281.index
300795519.index
973652023.index
561600363.index
444895827.index
4090519726.index
17966825.index
3299572053.index
737586846.index
3673183362.index
2465669622.index
1497609845.index
2101073257.index
3364283806.index
1160371099.index
2103855695.index
2134493170.index
3351638400.index
3219052760.index
22614293.index
1642536134.index
1693887081.index
2389632272.index
2210486366.index
1272614419.index
4287699860.index
3267449440.index
470391380.index
964279412.index
3042943434.index
1786307842.index
342647105.index
3983427721.index
324093397.index
2287467648.index
472249145.index
3127728267.index
1729734844.index
173680289.index
573479807.index
1193298692.index
3704232012.index
184028640.index
3457719773.index
2499951800.index
2434838420.index
1971941651.index
866513960.index
1801564493.index
2870895017.index
1986926929.index
3102803736.index
817518151.index
2506416264.index
2687323615.index
2726106904.index
2840538757.index
1861985986.index
1914900517.index
1531053359.index
3131362148.index
222096895.index
1165219157.index
2412628734.index
2270851361.index
3260845690.index
2979182894.index
1201447664.index
1149379826.index
3433509804.index
2196336556.index
3196936124.index
2000822296.index
744622810.index
508080093.index
3865290565.index
1370580081.index
1442582583.index
1954147104.index
1563003309.index
